Assignment 5
…
Exercise: Use slice() to choose the first 10 rows of flights.

first_10_rows <- slice(flights, 10, .preserve = TRUE)

Do the following exercises from 5.5.2:

Exercise 1

mutate(flights,
       hour = dep_time %/% 100,
       minute = dep_time %% 100,
       mins_since_midnight = hour*60 + minute
)

## # A tibble: 336,776 x 20
##     year month   day dep_time sched_dep_time dep_delay arr_time
##    <int> <int> <int>    <int>          <int>     <dbl>    <int>
##  1  2013     1     1      517            515         2      830
##  2  2013     1     1      533            529         4      850
##  3  2013     1     1      542            540         2      923
##  4  2013     1     1      544            545        -1     1004
##  5  2013     1     1      554            600        -6      812
##  6  2013     1     1      554            558        -4      740
##  7  2013     1     1      555            600        -5      913
##  8  2013     1     1      557            600        -3      709
##  9  2013     1     1      557            600        -3      838
## 10  2013     1     1      558            600        -2      753
## # ... with 336,766 more rows, and 13 more variables: sched_arr_time <int>,
## #   arr_delay <dbl>, carrier <chr>, flight <int>, tailnum <chr>,
## #   origin <chr>, dest <chr>, air_time <dbl>, distance <dbl>, hour <dbl>,
## #   minute <dbl>, time_hour <dttm>, mins_since_midnight <dbl>

Exercise 2

What I expect is that air_time is the difference between the arr_time and dep_time. In other words, air_time = arr_time - dep_time.

Since air_time is given in minutes but arr_time and dep_time are not, they need to be converted into minutes.

transmute(flights,
          dep_time_in_mins = (dep_time %/% 100 * 60 + dep_time %% 100) %% 1440,
          arr_time_in_mins = (arr_time %/% 100 * 60 + arr_time %% 100) %% 1440,
          air_time,
          air_time_diff = arr_time_in_mins - dep_time_in_mins)

## # A tibble: 336,776 x 4
##    dep_time_in_mins arr_time_in_mins air_time air_time_diff
##               <dbl>            <dbl>    <dbl>         <dbl>
##  1              317              510      227           193
##  2              333              530      227           197
##  3              342              563      160           221
##  4              344              604      183           260
##  5              354              492      116           138
##  6              354              460      150           106
##  7              355              553      158           198
##  8              357              429       53            72
##  9              357              518      140           161
## 10              358              473      138           115
## # ... with 336,766 more rows
…
Woah, that looks different! (And ugly.) So, not too misleading, but still

END OF EXERCISE

doing this with a pipe, and filtering out destinations with

less than 20 flights

by_destination <- group_by(flights, dest)

by_destination %>%
  summarise(count = n()) %>%
  filter(count>20)

## # A tibble: 97 x 2
##    dest  count
##    <chr> <int>
##  1 ABQ     254
##  2 ACK     265
##  3 ALB     439
##  4 ATL   17215
##  5 AUS    2439
##  6 AVL     275
##  7 BDL     443
##  8 BGR     375
##  9 BHM     297
## 10 BNA    6333
## # ... with 87 more rows

to HNL (Honululu), since its by far the furthest

by_destination <- group_by(flights, dest)

by_destination %>%
  filter(dest!='HNL')

## # A tibble: 336,069 x 19
## # Groups:   dest [104]
##     year month   day dep_time sched_dep_time dep_delay arr_time
##    <int> <int> <int>    <int>          <int>     <dbl>    <int>
##  1  2013     1     1      517            515         2      830
##  2  2013     1     1      533            529         4      850
##  3  2013     1     1      542            540         2      923
##  4  2013     1     1      544            545        -1     1004
##  5  2013     1     1      554            600        -6      812
##  6  2013     1     1      554            558        -4      740
##  7  2013     1     1      555            600        -5      913
##  8  2013     1     1      557            600        -3      709
##  9  2013     1     1      557            600        -3      838
## 10  2013     1     1      558            600        -2      753
## # ... with 336,059 more rows, and 12 more variables: sched_arr_time <int>,
## #   arr_delay <dbl>, carrier <chr>, flight <int>, tailnum <chr>,
## #   origin <chr>, dest <chr>, air_time <dbl>, distance <dbl>, hour <dbl>,
## #   minute <dbl>, time_hour <dttm>

Note: I am not a big fan of dropping things that look too different. You should do such robustness checks, but you shouldnt start there.

Exercise: Rewrite the above command without the pipe. Which one do you find easier to read?

Answer: In my opinion, the one with piping is easier to read.

by_destination <- group_by(flights, dest)

filter(by_destination, dest!='HNL')

## # A tibble: 336,069 x 19
## # Groups:   dest [104]
##     year month   day dep_time sched_dep_time dep_delay arr_time
##    <int> <int> <int>    <int>          <int>     <dbl>    <int>
##  1  2013     1     1      517            515         2      830
##  2  2013     1     1      533            529         4      850
##  3  2013     1     1      542            540         2      923
##  4  2013     1     1      544            545        -1     1004
##  5  2013     1     1      554            600        -6      812
##  6  2013     1     1      554            558        -4      740
##  7  2013     1     1      555            600        -5      913
##  8  2013     1     1      557            600        -3      709
##  9  2013     1     1      557            600        -3      838
## 10  2013     1     1      558            600        -2      753
## # ... with 336,059 more rows, and 12 more variables: sched_arr_time <int>,
## #   arr_delay <dbl>, carrier <chr>, flight <int>, tailnum <chr>,
## #   origin <chr>, dest <chr>, air_time <dbl>, distance <dbl>, hour <dbl>,
## #   minute <dbl>, time_hour <dttm>
…
Exercise: Find out what these do

first(x) # returns first element of x
first(c(3, 4, 2)) # returns the first element from (3,4,2)
last(x) # returns last element of x
nth(x, 2) # returns the element from x with index = 2

Counts are important. Count the number of flights to each destination.

by_destination <- group_by(flights, dest)

summarise(by_destination, count = n())

## # A tibble: 105 x 2
##    dest  count
##    <chr> <int>
##  1 ABQ     254
##  2 ACK     265
##  3 ALB     439
##  4 ANC       8
##  5 ATL   17215
##  6 AUS    2439
##  7 AVL     275
##  8 BDL     443
##  9 BGR     375
## 10 BHM     297
## # ... with 95 more rows

Count the number of distinct carriers to each location.

(by_destination <- flights %>%
  group_by(dest) %>%
  summarise(length(unique(carrier))))

## # A tibble: 105 x 2
##    dest  `length(unique(carrier))`
##    <chr>                     <int>
##  1 ABQ                           1
##  2 ACK                           1
##  3 ALB                           1
##  4 ANC                           1
##  5 ATL                           7
##  6 AUS                           6
##  7 AVL                           2
##  8 BDL                           2
##  9 BGR                           2
## 10 BHM                           1
## # ... with 95 more rows

You can weight the counting, here by distance. This counts how many airmiles a given airplane did from NYC

(by_destination <- flights %>%
  group_by(dest) %>%
  summarise(length(unique(carrier)),sum(distance)))

## # A tibble: 105 x 3
##    dest  `length(unique(carrier))` `sum(distance)`
##    <chr>                     <int>           <dbl>
##  1 ABQ                           1          463804
##  2 ACK                           1           52735
##  3 ALB                           1           62777
##  4 ANC                           1           26960
##  5 ATL                           7        13033618
##  6 AUS                           6         3693263
##  7 AVL                           2          160485
##  8 BDL                           2           51388
##  9 BGR                           2          141750
## 10 BHM                           1          257201
## # ... with 95 more rows
…
by_day <- flights %>%
  group_by(year, month, day) %>%
  filter(dep_time < 500) %>%
  summarise(count = n())

How many flights are delayed each day by more than 1 hour?

by_day <- flights %>%
  group_by(year, month, day) %>%
  filter(dep_delay > 60) %>%
  summarise(count = n())

by_day

## # A tibble: 365 x 4
## # Groups:   year, month [12]
##     year month   day count
##    <int> <int> <int> <int>
##  1  2013     1     1    51
##  2  2013     1     2    80
##  3  2013     1     3    53
##  4  2013     1     4    43
##  5  2013     1     5    26
##  6  2013     1     6    34
##  7  2013     1     7    41
##  8  2013     1     8    22
##  9  2013     1     9    13
## 10  2013     1    10    21
## # ... with 355 more rows
…
